{
    "_class": "hudson.model.FreeStyleBuild",
    "actions": [
        {
            "_class": "hudson.model.CauseAction",
            "causes": [
                {
                    "_class": "hudson.model.Cause$UserIdCause",
                    "shortDescription": "Started by user Karthick",
                    "userId": "admin",
                    "userName": "Karthick"
                }
            ]
        },
        {
            "_class": "hudson.plugins.git.util.BuildData",
            "buildsByBranchName": {
                "refs/remotes/origin/master": {
                    "_class": "hudson.plugins.git.util.Build",
                    "buildNumber": 49,
                    "buildResult": null,
                    "marked": {
                        "SHA1": "77c2e35884b6a678225cb1c532c35aaeb5191164",
                        "branch": [
                            {
                                "SHA1": "77c2e35884b6a678225cb1c532c35aaeb5191164",
                                "name": "refs/remotes/origin/master"
                            }
                        ]
                    },
                    "revision": {
                        "SHA1": "77c2e35884b6a678225cb1c532c35aaeb5191164",
                        "branch": [
                            {
                                "SHA1": "77c2e35884b6a678225cb1c532c35aaeb5191164",
                                "name": "refs/remotes/origin/master"
                            }
                        ]
                    }
                }
            },
            "lastBuiltRevision": {
                "SHA1": "77c2e35884b6a678225cb1c532c35aaeb5191164",
                "branch": [
                    {
                        "SHA1": "77c2e35884b6a678225cb1c532c35aaeb5191164",
                        "name": "refs/remotes/origin/master"
                    }
                ]
            },
            "remoteUrls": [
                "git@github.com:DaveMcLean/hummingbird.git"
            ],
            "scmName": ""
        },
        {
            "_class": "hudson.plugins.git.GitTagAction"
        },
        {
            
        },
        {
            
        }
    ],
    "artifacts": [
        
    ],
    "building": false,
    "builtOn": "",
    "changeSet": {
        "_class": "hudson.plugins.git.GitChangeSetList",
        "items": [
            {
                "_class": "hudson.plugins.git.GitChangeSet",
                "affectedPaths": [
                    "src/main/resources/lastReportedMonthOption2.xml"
                ],
                "author": {
                    "absoluteUrl": "http://localhost:8080/user/jenkins",
                    "fullName": "jenkins"
                },
                "comment": "Committing all version updates for 4.4.0.63-SNAPSHOT",
                "commitId": "77c2e35884b6a678225cb1c532c35aaeb5191165",
                "date": "2016-10-14 02:07:05 +0100",
                "id": "77c2e35884b6a678225cb1c532c35aaeb5191164",
                "msg": "Added Fast Track In Stock report to be pulled as well. Changed Logout",
                "paths": [
                    {
                        "editType": "edit",
                        "file": "src/main/resources/applicationContext.xml"
                    },
                    {
                        "editType": "add",
                        "file": "src/main/java/com/lcm/functionalinterfaces/functions/lastReportedMonthOption2.java"
                    }
                ],
                "timestamp": 1476407225000
            },
            {
                "_class": "hudson.plugins.git.GitChangeSet",
                "affectedPaths": [
                    "src/main/resources/lastReportedMonthOption2.xml"
                ],
                "author": {
                    "absoluteUrl": "http://localhost:8080/user/jenkins",
                    "fullName": "jenkins"
                },
                "comment": "Committing all version updates for 4.4.0.63-SNAPSHOT",
                "commitId": "77c2e358a4b6a678225cb1c532c35aaeb5191165",
                "date": "2016-10-14 02:07:05 +0100",
                "id": "77c2e35884b6a678225cb1c532c35aaeb5191164",
                "msg": "Added Fast Track In Stock report to be pulled as well. Changed Logout",
                "paths": [
                    {
                        "editType": "edit",
                        "file": "src/main/resources/applicationContext.xml"
                    },
                    {
                        "editType": "add",
                        "file": "src/main/java/com/lcm/functionalinterfaces/functions/lastReportedMonthOption2.java"
                    }
                ],
                "timestamp": 1476407025000
            },
            {
                "_class": "hudson.plugins.git.GitChangeSet",
                "affectedPaths": [
                    "src/main/resources/downloadReport2.FastTrackInStockOption.xml",
                    "src/main/java/com/lcm/functionalinterfaces/functions/FastTrackInStockOption.java"
                ],
                "author": {
                    "absoluteUrl": "http://localhost:8080/user/affkar",
                    "fullName": "affkar"
                },
                "comment": "FUTS-12345 Added Fast Track In Stock report to be pulled as well. Changed Logout\nlink lookup information, as amazon vendor central has changed it. Added\na new reporting period action, as it has a different button id this time\nfor FaskTrackInStock Restructured some xml files\n",
                "commitId": "77c2e35884b6a678225cb1c532c35aaeb5191164",
                "date": "2016-10-14 02:07:05 +0100",
                "id": "77c2e35884b6a678225cb1c532c35aaeb5191164",
                "msg": "Added Fast Track In Stock report to be pulled as well. Changed Logout",
                "paths": [
                    {
                        "editType": "edit",
                        "file": "src/main/resources/applicationContext.xml"
                    }
                ],
                "timestamp": 1478407225000
            }
            
        ],
        "kind": "git"
    },
    "culprits": [
        {
            "absoluteUrl": "http://localhost:8080/user/affkar",
            "fullName": "affkar"
        },
        {
            "absoluteUrl": "http://localhost:8080/user/noreply",
            "fullName": "noreply"
        }
    ],
    "description": null,
    "displayName": "#49",
    "duration": 53962,
    "estimatedDuration": 53962,
    "executor": null,
    "fullDisplayName": "VendorCentralReporting #49",
    "id": "49",
    "keepLog": false,
    "number": 49,
    "queueId": 178,
    "result": "FAILURE",
    "timestamp": 1477387347147,
    "url": "http://localhost:8080/job/VendorCentralReporting/49/"
}
